{
  "cviceni": {
    "version": {
      "global": "<%= version %>",
      "content": 3
    },
    "katalog": [
      "test",
      "public"
    ],
    "language": "cs",
    "slug": "jake-narodni-symboly-potrebujeme",
    "nazev": "Jaké národní symboly potřebujeme?",
    "autor": [
      "Andrea Průchová"
    ],
    "klicovaSlova": {
      "rvp": [
        "politický vývoj ČSR",
        "národnostní problémy ČSR"
      ],
      "koncept": [
        "symboly"
      ],
      "b4": [
        "vztah k minulosti"
      ],
      "historylab": [
        "diskutujeme"
      ]
    },
    "casovaOsa": {
      "roky": [
        2018
      ],
      "epochy": [
        {
          "refId": "czech",
          "obdobi": [
            "Česká republika v integrující se Evropě"
          ]
        },
        {
          "refId": "world",
          "obdobi": []
        }
      ]
    },
    "anotace": {
      "ucitel": "Cvičení žáky formou pátrání seznamuje s příběhem jednoho ze zničených hraničních sloupů, které označovaly hranice meziválečné Československé republiky. Analýza oficiálního textu a fotografií ilustrujících nález sloupu a jeho následnou prezentaci na výstavě ke 100. výročí vzniku ČSR vede žáky k zamyšlení nad funkcí a hodnotou státních symbolů v novodobé společnosti.",
      "verejna": "Co všechno může člověk najít na výstavě připomínající sto let od vzniku Československa? S pomocí fotografií a textu pátrejte po osudech nezvyklého exponátu z výstavní síně a zjistěte, proč ho mnozí lidé v minulosti i dnes mohou vnímat jako národní symbol. A jaké symboly jsou důležité pro vás?"
    },
    "trvani": 30,
    "obtiznost": "střední",
    "funkce": [
      "lupa",
      "text",
      "svg",
      "kresleni",
      "text-editor"
    ],
    "pdf": {
      "doporucenyPostup": "jake-narodni-symboly-potrebujeme.pdf"
    },
    "uvodniObrazek": "jake-narodni-symboly-potrebujeme/pic-00-1280w.jpg",
    "id": 72,
    "color": {
      "rgb": {
        "r": 149,
        "g": 110,
        "b": 84
      },
      "hsv": {
        "h": 24,
        "s": 43.62,
        "v": 58.43
      }
    }
  },
  "slajd": [
    {
      "zadani": {
        "hlavni": "Prohlédněte si fotografii.",
        "rozsirujici": ""
      },
      "napoveda": {
        "aktivity": [
          "lupa"
        ],
        "text": "Při kliknutí levým tlačítkem do obrazu lupa přiblíží část obrazu ve výřezu."
      },
      "prameny": [
        "jake-narodni-symboly-potrebujeme/pic-00-1280w.jpg"
      ],
      "popisky": [
        "Výstava Doteky státnosti konaná na Pražském hradě v roce 2018 při příležitosti 100. výročí vzniku Československa. Zdroj: VHÚ Praha"
      ]
    },
    {
      "zadani": {
        "hlavni": "Označte a popište vystavené exponáty.",
        "rozsirujici": ""
      },
      "napoveda": {
        "aktivity": [
          "svg"
        ],
        "text": "Tahem myši levým tlačítkem kreslíte do obrazu. Nakliknutím na nakreslený tvar pravým tlačítkem otevřete menu s nabídkou úkonů: změnit barvu tvaru, (T) doplnit textový komentář, (X) smazat nakliknutý objekt."
      },
      "svg": {
        "soubory": [
          {
            "id": "svg-1",
            "soubor": "jake-narodni-symboly-potrebujeme/pic-00-1280w.jpg",
            "funkce": [
              "text",
              "znacky"
            ]
          }
        ]
      },
      "popisky": [
        "Výstava Doteky státnosti konaná na Pražském hradě v roce 2018 při příležitosti 100. výročí vzniku Československa. Zdroj: VHÚ Praha"
      ]
    },
    {
      "zadani": {
        "hlavni": "K čemu původně sloužil exponát vystavený na první fotografii uprostřed místnosti?.",
        "rozsirujici": ""
      },
      "napoveda": {
        "aktivity": [
          "text"
        ],
        "text": "Do boxu pro text zapisujete odpověď na otázku, nebo jiný komentář (dle zadání)."
      },
      "uzivatelskyText": {
        "layout": "velka-galerie",
        "galerie": [
          {
            "soubor": "jake-narodni-symboly-potrebujeme/pic-00-1280w.jpg",
            "popisek": "Exponát na výstavě Doteky státnosti. Zdroj: VHÚ Praha, 2018"
          },
          {
            "soubor": "jake-narodni-symboly-potrebujeme/pic-01-1280w.jpg",
            "popisek": "Horské sedlo, 30. léta 20. století. Zdroj: Museum Fotoatelier Seidel Český Krumlov"
          },
          {
            "soubor": "jake-narodni-symboly-potrebujeme/pic-02-1280w.jpg",
            "popisek": "Zdroj: ČTK, 1938"
          },
          {
            "soubor": "jake-narodni-symboly-potrebujeme/pic-03-1280w.jpg",
            "popisek": "Mapa Česko-Slovenské republiky (1938–1939). Zdroj: Archiv města Ostravy"
          }
        ],
        "otazky": [
          {
            "id": "text-1",
            "zadani": "K odpovědi využijte další prameny v galerii.",
            "instrukce": "Myslím si, že…",
            "minDelka": 2,
            "maxDelka": 400
          }
        ]
      }
    },
    {
      "zadani": {
        "hlavni": "Přečtěte si úryvky z textu a prohlédněte si fotografie v galerii.",
        "rozsirujici": "Označte části textu, které zdůrazňují význam sloupu jako národního symbolu."
      },
      "napoveda": {
        "aktivity": [
          "lupa",
          "text-editor"
        ],
        "text": "Levým tlačítkem myši zabarvíte zvolené slovo nebo slovní spojení. Otevře se vám nabídka, v níž zvolíte označovanou kategorii. Křížkem lze označení smazat."
      },
      "textovyEditor": {
        "galerie": [
          {
            "soubor": "jake-narodni-symboly-potrebujeme/pic-04-1280w.jpg",
            "popisek": "Zdroj: VHÚ Praha"
          },
          {
            "soubor": "jake-narodni-symboly-potrebujeme/pic-05-1280w.jpg",
            "popisek": "Zdroj: VHÚ Praha"
          },
          {
            "soubor": "jake-narodni-symboly-potrebujeme/pic-06-1280w.jpg",
            "popisek": "Zdroj: VHÚ Praha"
          }
        ],
        "texty": [
          {
            "id": 1,
            "text": "text-00",
            "funkce": "zvyraznovani",
            "menu": [
              {
                "title": "SLOUP JAKO NÁRODNÍ SYMBOL",
                "commandName": "hodnotaSloup",
                "color": "yellow"
              }
            ]
          }
        ]
      },
      "popisky": [
        "Předválečný hraniční sloup je opět na českém území, 15. května 2017. Zdroj: VHÚ Praha"
      ]
    },
    {
      "zadani": {
        "hlavni": "Odpovězte na otázky.",
        "rozsirujici": ""
      },
      "napoveda": {
        "aktivity": [
          "text"
        ],
        "text": "Do boxu pro text zapisujete odpověď na otázku, nebo jiný komentář (dle zadání)."
      },
      "uzivatelskyText": {
        "layout": "velka-galerie",
        "galerie": [
          {
            "typ": "svg",
            "objekt": {
              "id": "svg-1-dup",
              "duplikovat": [
                "svg-1"
              ],
              "soubor": "jake-narodni-symboly-potrebujeme/pic-00-1280w.jpg",
              "funkce": [
                "text",
                "znacky"
              ]
            }
          }
        ],
        "otazky": [
          {
            "id": "text-2",
            "zadani": "Považujete tento sloup za národní symbol? Svoji odpověď zdůvodněte.",
            "instrukce": "Myslím si, že…",
            "minDelka": 2,
            "maxDelka": 400
          },
          {
            "id": "text-3",
            "zadani": "Jaké exponáty byste na výstavě ke 100. výročí vzniku Československa vystavili vy a proč?",
            "instrukce": "Myslím si, že…",
            "minDelka": 2,
            "maxDelka": 400
          }
        ]
      }
    }
  ]
}