{
  "cviceni": {
    "version": {
      "global": "<%= version %>",
      "content": 4
    },
    "katalog": [
      "test",
      "public"
    ],
    "language": "cs",
    "slug": "s-trabanty-za-svobodou",
    "nazev": "S trabanty za svobodou",
    "autor": [
      "Pavla Sýkorová"
    ],
    "klicovaSlova": {
      "rvp": [
        "důsledky studené války"
      ],
      "koncept": [
        "migrace"
      ],
      "b4": [
        "příčiny a důsledky"
      ],
      "historylab": [
        "tvoříme"
      ]
    },
    "casovaOsa": {
      "roky": [
        1989
      ],
      "epochy": [
        {
          "refId": "czech",
          "obdobi": [
            "normalizace"
          ]
        },
        {
          "refId": "world",
          "obdobi": []
        }
      ]
    },
    "anotace": {
      "ucitel": "Cvičení využívá sled fotografií ilustrující hromadný útěk občanů Východního Německa přes ambasádu SRN v Praze do Západního Německa v roce 1989. Žáci s pomocí analýzy fotografií a jejich chronologického řazení sestavují příběh, který se na pozadí zobrazených situací mohl odehrávat. Cvičení je možné využít k přiblížení dramatických událostí, které v roce 1989 provázely postupný rozpad komunistických režimů v zemích východního bloku.",
      "verejna": "V průběhu roku 1989 se odehrávaly dramatické příběhy. Pomocí fotografií sestavte jeden z nich a uvědomíte si, že do poslední chvíle nebylo nic jisté. Rychlost změn je někdy překvapivá."
    },
    "trvani": 35,
    "obtiznost": "střední",
    "funkce": [
      "lupa",
      "text",
      "svg",
      "razeni"
    ],
    "pdf": {
      "doporucenyPostup": "s-trabanty-za-svobodou.pdf"
    },
    "uvodniObrazek": "s-trabanty-za-svobodou/pic-00-1280w.jpg",
    "id": 61,
    "color": {
      "rgb": {
        "r": 113,
        "g": 113,
        "b": 113
      },
      "hsv": {
        "h": 0,
        "s": 0,
        "v": 44.31
      }
    }
  },
  "slajd": [
    {
      "zadani": {
        "hlavni": "Prohlédněte si fotografii.",
        "rozsirujici": ""
      },
      "napoveda": {
        "aktivity": [
          "lupa"
        ],
        "text": "Při kliknutí levým tlačítkem do obrazu lupa přiblíží část obrazu ve&nbsp;výřezu."
      },
      "prameny": [
        "s-trabanty-za-svobodou/pic-01-1280w.jpg"
      ]
    },
    {
      "zadani": {
        "hlavni": "Vyznačte na fotografii důležité prvky, které pomohou určit, co se na ní děje.",
        "rozsirujici": ""
      },
      "napoveda": {
        "aktivity": [
          "svg"
        ],
        "text": "Kliknutím na snímek levým tlačítkem myši označujete bod. Nakliknutím na bod pravým tlačítkem otevřete menu s nabídkou úkonů: změnit barvu bodu, (T) doplnit textový komentář, (X) smazat nakliknutý objekt."
      },
      "svg": {
        "soubory": [
          {
            "id": "svg-1",
            "soubor": "s-trabanty-za-svobodou/pic-01-1280w.jpg",
            "funkce": [
              "text",
              "znacky"
            ]
          }
        ]
      }
    },
    {
      "zadani": {
        "hlavni": "Prohlédněte si další fotografie a přečtěte si popisky.",
        "rozsirujici": ""
      },
      "napoveda": {
        "aktivity": [
          "lupa"
        ],
        "text": "Při kliknutí levým tlačítkem do obrazu lupa přiblíží část obrazu ve&nbsp;výřezu."
      },
      "prameny": [
        "s-trabanty-za-svobodou/pic-03-1280w.jpg",
        "s-trabanty-za-svobodou/pic-01-1280w.jpg",
        "s-trabanty-za-svobodou/pic-02-1280w.jpg",
        "s-trabanty-za-svobodou/pic-04-1280w.jpg"
      ],
      "popisky": [
        "Velvyslanectví SRN (Západního Německa), Praha, 1989. Foto Reinhard Kemmether. Zdroj: ČTK",
        "Občané NDR (Východního Německa) přelézají zeď, Praha, 1989. Foto Karel Cudlín. Zdroj: archiv autora",
        "Auta z NDR (Východního Německa), Praha, 1989. Foto Josef Ptáček. Zdroj: archiv autora",
        "Autobus ze SRN (Západního Německa), Praha, 1989. Foto Karel Cudlín. Zdroj: archiv autora"
      ],
      "zpetnaVazba": {
        "text": "Mám prohlédnuto!"
      }
    },
    {
      "zadani": {
        "hlavni": "Vyznačte a popište na každé fotografii dva důležité prvky, které vám pomohou odhalit, co se na snímcích děje.",
        "rozsirujici": ""
      },
      "napoveda": {
        "aktivity": [
          "svg"
        ],
        "text": "Kliknutím na snímek levým tlačítkem myši označujete bod. Nakliknutím na bod pravým tlačítkem otevřete menu s nabídkou úkonů: změnit barvu bodu, (T) doplnit textový komentář, (X) smazat nakliknutý objekt."
      },
      "svg": {
        "soubory": [
          {
            "id": "svg-2",
            "soubor": "s-trabanty-za-svobodou/pic-03-640w.jpg",
            "funkce": [
              "text",
              "znacky"
            ]
          },
          {
            "id": "svg-3",
            "soubor": "s-trabanty-za-svobodou/pic-01-640w.jpg",
            "funkce": [
              "text",
              "znacky"
            ]
          },
          {
            "id": "svg-4",
            "soubor": "s-trabanty-za-svobodou/pic-02-640w.jpg",
            "funkce": [
              "text",
              "znacky"
            ]
          },
          {
            "id": "svg-5",
            "soubor": "s-trabanty-za-svobodou/pic-04-640w.jpg",
            "funkce": [
              "text",
              "znacky"
            ]
          }
        ]
      },
      "popisky": [
        "Velvyslanectví SRN (Západního Německa), Praha, 1989. Foto Reinhard Kemmether. Zdroj: ČTK",
        "Občané NDR (Východního Německa) přelézají zeď, Praha, 1989. Foto Karel Cudlín. Zdroj: archiv autora",
        "Auta z NDR (Východního Německa), Praha, 1989. Foto Josef Ptáček. Zdroj: archiv autora",
        "Autobus ze SRN (Západního Německa), Praha, 1989. Foto Karel Cudlín. Zdroj: archiv autora"
      ]
    },
    {
      "class": "half-slide-previous",
      "zadani": {
        "hlavni": "Seřaďte snímky.",
        "rozsirujici": "Odhadněte, jak šly události za sebou."
      },
      "napoveda": {
        "aktivity": [
          "razeni"
        ],
        "text": "Kliknutím na fotografie a tahem myši přesuňte fotografii na požadovanou pozici mezi ostatní položky."
      },
      "razeni": {
        "id": "razeni-1",
        "typ": "horizontalni",
        "objekty": [
          {
            "medium": "svg",
            "objekt": {
              "soubor": "s-trabanty-za-svobodou/pic-03-640w.jpg",
              "duplikovat": [
                "svg-2"
              ]
            },
            "popisek": "Velvyslanectví SRN (Západního Německa).",
            "spravnaOdpoved": "2"
          },
          {
            "medium": "svg",
            "objekt": {
              "soubor": "s-trabanty-za-svobodou/pic-01-640w.jpg",
              "duplikovat": [
                "svg-3"
              ]
            },
            "popisek": "Občané NDR (Východního Německa) přelézají zeď.",
            "spravnaOdpoved": "1"
          },
          {
            "medium": "svg",
            "objekt": {
              "soubor": "s-trabanty-za-svobodou/pic-02-640w.jpg",
              "duplikovat": [
                "svg-4"
              ]
            },
            "popisek": "Auta z NDR (Východního Německa).",
            "spravnaOdpoved": "4"
          },
          {
            "medium": "svg",
            "objekt": {
              "soubor": "s-trabanty-za-svobodou/pic-04-640w.jpg",
              "duplikovat": [
                "svg-5"
              ]
            },
            "popisek": "Autobus ze SRN (Západního Německa).",
            "spravnaOdpoved": "3"
          }
        ],
        "zpetnaVazba": [
          {
            "podminka": 2,
            "text": "Opravdu? My jsme fotografie uspořádali odlišně.",
            "barva": "color-red"
          },
          {
            "podminka": 1,
            "text": "Jednu fotografii bychom uspořádali odlišně.",
            "barva": "color-orange"
          },
          {
            "podminka": 0,
            "text": "Výtečně. Uspořádali jsme fotografie stejně.",
            "barva": "color-green"
          }
        ]
      }
    },
    {
      "class": [
        "half-slide-active"
      ],
      "zadani": {
        "hlavni": "Vyprávějte příběh o cestě trabanty za svobodou.",
        "rozsirujici": "Do vyprávění zahrňte vámi popsané důležité body."
      },
      "napoveda": {
        "aktivity": [
          "text"
        ],
        "text": "Do boxu pro text zapisujete odpověď na otázku, nebo jiný komentář (dle zadání)."
      },
      "uzivatelskyText": {
        "otazky": [
          {
            "id": "text-1",
            "zadani": "",
            "instrukce": "Myslím, že…",
            "minDelka": 2,
            "maxDelka": 400
          }
        ]
      }
    }
  ]
}